mc20_13TeV:mc20_13TeV.801577.Py8EG_A14NNPDF23LO_XHS_X200_S70_4b.deriv.DAOD_PHYSLITE.e8448_a899_r13144_p5511    
mc20_13TeV:mc20_13TeV.801577.Py8EG_A14NNPDF23LO_XHS_X200_S70_4b.deriv.DAOD_PHYSLITE.e8448_a899_r13145_p5511    
mc20_13TeV:mc20_13TeV.801577.Py8EG_A14NNPDF23LO_XHS_X200_S70_4b.deriv.DAOD_PHYSLITE.e8448_a899_r13167_p5511    
mc20_13TeV:mc20_13TeV.801578.Py8EG_A14NNPDF23LO_XHS_X300_S70_4b.deriv.DAOD_PHYSLITE.e8448_a899_r13144_p5511    
mc20_13TeV:mc20_13TeV.801578.Py8EG_A14NNPDF23LO_XHS_X300_S70_4b.deriv.DAOD_PHYSLITE.e8448_a899_r13145_p5511    
mc20_13TeV:mc20_13TeV.801578.Py8EG_A14NNPDF23LO_XHS_X300_S70_4b.deriv.DAOD_PHYSLITE.e8448_a899_r13167_p5511    
mc20_13TeV:mc20_13TeV.801579.Py8EG_A14NNPDF23LO_XHS_X300_S100_4b.deriv.DAOD_PHYSLITE.e8448_a899_r13144_p5511   
mc20_13TeV:mc20_13TeV.801579.Py8EG_A14NNPDF23LO_XHS_X300_S100_4b.deriv.DAOD_PHYSLITE.e8448_a899_r13145_p5511   
mc20_13TeV:mc20_13TeV.801579.Py8EG_A14NNPDF23LO_XHS_X300_S100_4b.deriv.DAOD_PHYSLITE.e8448_a899_r13167_p5511   
mc20_13TeV:mc20_13TeV.801580.Py8EG_A14NNPDF23LO_XHS_X300_S170_4b.deriv.DAOD_PHYSLITE.e8448_a899_r13144_p5511   
mc20_13TeV:mc20_13TeV.801580.Py8EG_A14NNPDF23LO_XHS_X300_S170_4b.deriv.DAOD_PHYSLITE.e8448_a899_r13145_p5511   
mc20_13TeV:mc20_13TeV.801580.Py8EG_A14NNPDF23LO_XHS_X300_S170_4b.deriv.DAOD_PHYSLITE.e8448_a899_r13167_p5511   
mc20_13TeV:mc20_13TeV.801581.Py8EG_A14NNPDF23LO_XHS_X400_S70_4b.deriv.DAOD_PHYSLITE.e8448_a899_r13144_p5511    
mc20_13TeV:mc20_13TeV.801581.Py8EG_A14NNPDF23LO_XHS_X400_S70_4b.deriv.DAOD_PHYSLITE.e8448_a899_r13145_p5511    
mc20_13TeV:mc20_13TeV.801581.Py8EG_A14NNPDF23LO_XHS_X400_S70_4b.deriv.DAOD_PHYSLITE.e8448_a899_r13167_p5511    
mc20_13TeV:mc20_13TeV.801582.Py8EG_A14NNPDF23LO_XHS_X400_S100_4b.deriv.DAOD_PHYSLITE.e8448_a899_r13144_p5511   
mc20_13TeV:mc20_13TeV.801582.Py8EG_A14NNPDF23LO_XHS_X400_S100_4b.deriv.DAOD_PHYSLITE.e8448_a899_r13145_p5511   
mc20_13TeV:mc20_13TeV.801582.Py8EG_A14NNPDF23LO_XHS_X400_S100_4b.deriv.DAOD_PHYSLITE.e8448_a899_r13167_p5511   
mc20_13TeV:mc20_13TeV.801583.Py8EG_A14NNPDF23LO_XHS_X400_S170_4b.deriv.DAOD_PHYSLITE.e8448_a899_r13144_p5511   
mc20_13TeV:mc20_13TeV.801583.Py8EG_A14NNPDF23LO_XHS_X400_S170_4b.deriv.DAOD_PHYSLITE.e8448_a899_r13145_p5511   
mc20_13TeV:mc20_13TeV.801583.Py8EG_A14NNPDF23LO_XHS_X400_S170_4b.deriv.DAOD_PHYSLITE.e8448_a899_r13167_p5511   
mc20_13TeV:mc20_13TeV.801584.Py8EG_A14NNPDF23LO_XHS_X400_S200_4b.deriv.DAOD_PHYSLITE.e8448_a899_r13144_p5511   
mc20_13TeV:mc20_13TeV.801584.Py8EG_A14NNPDF23LO_XHS_X400_S200_4b.deriv.DAOD_PHYSLITE.e8448_a899_r13145_p5511   
mc20_13TeV:mc20_13TeV.801584.Py8EG_A14NNPDF23LO_XHS_X400_S200_4b.deriv.DAOD_PHYSLITE.e8448_a899_r13167_p5511   
mc20_13TeV:mc20_13TeV.801585.Py8EG_A14NNPDF23LO_XHS_X400_S250_4b.deriv.DAOD_PHYSLITE.e8448_a899_r13144_p5511   
mc20_13TeV:mc20_13TeV.801585.Py8EG_A14NNPDF23LO_XHS_X400_S250_4b.deriv.DAOD_PHYSLITE.e8448_a899_r13145_p5511   
mc20_13TeV:mc20_13TeV.801585.Py8EG_A14NNPDF23LO_XHS_X400_S250_4b.deriv.DAOD_PHYSLITE.e8448_a899_r13167_p5511   
mc20_13TeV:mc20_13TeV.801586.Py8EG_A14NNPDF23LO_XHS_X750_S70_4b.deriv.DAOD_PHYSLITE.e8448_a899_r13144_p5511    
mc20_13TeV:mc20_13TeV.801586.Py8EG_A14NNPDF23LO_XHS_X750_S70_4b.deriv.DAOD_PHYSLITE.e8448_a899_r13145_p5511    
mc20_13TeV:mc20_13TeV.801586.Py8EG_A14NNPDF23LO_XHS_X750_S70_4b.deriv.DAOD_PHYSLITE.e8448_a899_r13167_p5511    
mc20_13TeV:mc20_13TeV.801587.Py8EG_A14NNPDF23LO_XHS_X750_S100_4b.deriv.DAOD_PHYSLITE.e8448_a899_r13144_p5511   
mc20_13TeV:mc20_13TeV.801587.Py8EG_A14NNPDF23LO_XHS_X750_S100_4b.deriv.DAOD_PHYSLITE.e8448_a899_r13145_p5511   
mc20_13TeV:mc20_13TeV.801587.Py8EG_A14NNPDF23LO_XHS_X750_S100_4b.deriv.DAOD_PHYSLITE.e8448_a899_r13167_p5511   
mc20_13TeV:mc20_13TeV.801588.Py8EG_A14NNPDF23LO_XHS_X750_S170_4b.deriv.DAOD_PHYSLITE.e8448_a899_r13144_p5511   
mc20_13TeV:mc20_13TeV.801588.Py8EG_A14NNPDF23LO_XHS_X750_S170_4b.deriv.DAOD_PHYSLITE.e8448_a899_r13145_p5511   
mc20_13TeV:mc20_13TeV.801588.Py8EG_A14NNPDF23LO_XHS_X750_S170_4b.deriv.DAOD_PHYSLITE.e8448_a899_r13167_p5511   
mc20_13TeV:mc20_13TeV.801589.Py8EG_A14NNPDF23LO_XHS_X750_S200_4b.deriv.DAOD_PHYSLITE.e8448_a899_r13144_p5511   
mc20_13TeV:mc20_13TeV.801589.Py8EG_A14NNPDF23LO_XHS_X750_S200_4b.deriv.DAOD_PHYSLITE.e8448_a899_r13145_p5511   
mc20_13TeV:mc20_13TeV.801589.Py8EG_A14NNPDF23LO_XHS_X750_S200_4b.deriv.DAOD_PHYSLITE.e8448_a899_r13167_p5511   
mc20_13TeV:mc20_13TeV.801590.Py8EG_A14NNPDF23LO_XHS_X750_S250_4b.deriv.DAOD_PHYSLITE.e8448_a899_r13144_p5511   
mc20_13TeV:mc20_13TeV.801590.Py8EG_A14NNPDF23LO_XHS_X750_S250_4b.deriv.DAOD_PHYSLITE.e8448_a899_r13145_p5511   
mc20_13TeV:mc20_13TeV.801590.Py8EG_A14NNPDF23LO_XHS_X750_S250_4b.deriv.DAOD_PHYSLITE.e8448_a899_r13167_p5511   
mc20_13TeV:mc20_13TeV.801591.Py8EG_A14NNPDF23LO_XHS_X750_S300_4b.deriv.DAOD_PHYSLITE.e8448_a899_r13144_p5511   
mc20_13TeV:mc20_13TeV.801591.Py8EG_A14NNPDF23LO_XHS_X750_S300_4b.deriv.DAOD_PHYSLITE.e8448_a899_r13145_p5511   
mc20_13TeV:mc20_13TeV.801591.Py8EG_A14NNPDF23LO_XHS_X750_S300_4b.deriv.DAOD_PHYSLITE.e8448_a899_r13167_p5511   
mc20_13TeV:mc20_13TeV.801592.Py8EG_A14NNPDF23LO_XHS_X750_S400_4b.deriv.DAOD_PHYSLITE.e8448_a899_r13144_p5511   
mc20_13TeV:mc20_13TeV.801592.Py8EG_A14NNPDF23LO_XHS_X750_S400_4b.deriv.DAOD_PHYSLITE.e8448_a899_r13145_p5511   
mc20_13TeV:mc20_13TeV.801592.Py8EG_A14NNPDF23LO_XHS_X750_S400_4b.deriv.DAOD_PHYSLITE.e8448_a899_r13167_p5511   
mc20_13TeV:mc20_13TeV.801593.Py8EG_A14NNPDF23LO_XHS_X750_S500_4b.deriv.DAOD_PHYSLITE.e8448_a899_r13144_p5511   
mc20_13TeV:mc20_13TeV.801593.Py8EG_A14NNPDF23LO_XHS_X750_S500_4b.deriv.DAOD_PHYSLITE.e8448_a899_r13145_p5511   
mc20_13TeV:mc20_13TeV.801593.Py8EG_A14NNPDF23LO_XHS_X750_S500_4b.deriv.DAOD_PHYSLITE.e8448_a899_r13167_p5511   
mc20_13TeV:mc20_13TeV.801594.Py8EG_A14NNPDF23LO_XHS_X1000_S70_4b.deriv.DAOD_PHYSLITE.e8448_a899_r13144_p5511   
mc20_13TeV:mc20_13TeV.801594.Py8EG_A14NNPDF23LO_XHS_X1000_S70_4b.deriv.DAOD_PHYSLITE.e8448_a899_r13145_p5511   
mc20_13TeV:mc20_13TeV.801594.Py8EG_A14NNPDF23LO_XHS_X1000_S70_4b.deriv.DAOD_PHYSLITE.e8448_a899_r13167_p5511   
mc20_13TeV:mc20_13TeV.801595.Py8EG_A14NNPDF23LO_XHS_X1000_S100_4b.deriv.DAOD_PHYSLITE.e8448_a899_r13144_p5511  
mc20_13TeV:mc20_13TeV.801595.Py8EG_A14NNPDF23LO_XHS_X1000_S100_4b.deriv.DAOD_PHYSLITE.e8448_a899_r13145_p5511  
mc20_13TeV:mc20_13TeV.801595.Py8EG_A14NNPDF23LO_XHS_X1000_S100_4b.deriv.DAOD_PHYSLITE.e8448_a899_r13167_p5511  
mc20_13TeV:mc20_13TeV.801596.Py8EG_A14NNPDF23LO_XHS_X1000_S170_4b.deriv.DAOD_PHYSLITE.e8448_a899_r13144_p5511  
mc20_13TeV:mc20_13TeV.801596.Py8EG_A14NNPDF23LO_XHS_X1000_S170_4b.deriv.DAOD_PHYSLITE.e8448_a899_r13145_p5511  
mc20_13TeV:mc20_13TeV.801596.Py8EG_A14NNPDF23LO_XHS_X1000_S170_4b.deriv.DAOD_PHYSLITE.e8448_a899_r13167_p5511  
mc20_13TeV:mc20_13TeV.801597.Py8EG_A14NNPDF23LO_XHS_X1000_S200_4b.deriv.DAOD_PHYSLITE.e8448_a899_r13144_p5511  
mc20_13TeV:mc20_13TeV.801597.Py8EG_A14NNPDF23LO_XHS_X1000_S200_4b.deriv.DAOD_PHYSLITE.e8448_a899_r13145_p5511  
mc20_13TeV:mc20_13TeV.801597.Py8EG_A14NNPDF23LO_XHS_X1000_S200_4b.deriv.DAOD_PHYSLITE.e8448_a899_r13167_p5511  
mc20_13TeV:mc20_13TeV.801598.Py8EG_A14NNPDF23LO_XHS_X1000_S250_4b.deriv.DAOD_PHYSLITE.e8448_a899_r13144_p5511  
mc20_13TeV:mc20_13TeV.801598.Py8EG_A14NNPDF23LO_XHS_X1000_S250_4b.deriv.DAOD_PHYSLITE.e8448_a899_r13145_p5511  
mc20_13TeV:mc20_13TeV.801598.Py8EG_A14NNPDF23LO_XHS_X1000_S250_4b.deriv.DAOD_PHYSLITE.e8448_a899_r13167_p5511  
mc20_13TeV:mc20_13TeV.801599.Py8EG_A14NNPDF23LO_XHS_X1000_S300_4b.deriv.DAOD_PHYSLITE.e8448_a899_r13144_p5511  
mc20_13TeV:mc20_13TeV.801599.Py8EG_A14NNPDF23LO_XHS_X1000_S300_4b.deriv.DAOD_PHYSLITE.e8448_a899_r13145_p5511  
mc20_13TeV:mc20_13TeV.801599.Py8EG_A14NNPDF23LO_XHS_X1000_S300_4b.deriv.DAOD_PHYSLITE.e8448_a899_r13167_p5511  
mc20_13TeV:mc20_13TeV.801600.Py8EG_A14NNPDF23LO_XHS_X1000_S400_4b.deriv.DAOD_PHYSLITE.e8448_a899_r13144_p5511  
mc20_13TeV:mc20_13TeV.801600.Py8EG_A14NNPDF23LO_XHS_X1000_S400_4b.deriv.DAOD_PHYSLITE.e8448_a899_r13145_p5511  
mc20_13TeV:mc20_13TeV.801600.Py8EG_A14NNPDF23LO_XHS_X1000_S400_4b.deriv.DAOD_PHYSLITE.e8448_a899_r13167_p5511  
mc20_13TeV:mc20_13TeV.801601.Py8EG_A14NNPDF23LO_XHS_X1000_S500_4b.deriv.DAOD_PHYSLITE.e8448_a899_r13144_p5511  
mc20_13TeV:mc20_13TeV.801601.Py8EG_A14NNPDF23LO_XHS_X1000_S500_4b.deriv.DAOD_PHYSLITE.e8448_a899_r13145_p5511  
mc20_13TeV:mc20_13TeV.801601.Py8EG_A14NNPDF23LO_XHS_X1000_S500_4b.deriv.DAOD_PHYSLITE.e8448_a899_r13167_p5511  
mc20_13TeV:mc20_13TeV.801602.Py8EG_A14NNPDF23LO_XHS_X1000_S750_4b.deriv.DAOD_PHYSLITE.e8448_a899_r13144_p5511  
mc20_13TeV:mc20_13TeV.801602.Py8EG_A14NNPDF23LO_XHS_X1000_S750_4b.deriv.DAOD_PHYSLITE.e8448_a899_r13145_p5511  
mc20_13TeV:mc20_13TeV.801602.Py8EG_A14NNPDF23LO_XHS_X1000_S750_4b.deriv.DAOD_PHYSLITE.e8448_a899_r13167_p5511  
mc20_13TeV:mc20_13TeV.801603.Py8EG_A14NNPDF23LO_XHS_X1500_S70_4b.deriv.DAOD_PHYSLITE.e8448_a899_r13144_p5511   
mc20_13TeV:mc20_13TeV.801603.Py8EG_A14NNPDF23LO_XHS_X1500_S70_4b.deriv.DAOD_PHYSLITE.e8448_a899_r13145_p5511   
mc20_13TeV:mc20_13TeV.801603.Py8EG_A14NNPDF23LO_XHS_X1500_S70_4b.deriv.DAOD_PHYSLITE.e8448_a899_r13167_p5511   
mc20_13TeV:mc20_13TeV.801604.Py8EG_A14NNPDF23LO_XHS_X1500_S100_4b.deriv.DAOD_PHYSLITE.e8448_a899_r13144_p5511  
mc20_13TeV:mc20_13TeV.801604.Py8EG_A14NNPDF23LO_XHS_X1500_S100_4b.deriv.DAOD_PHYSLITE.e8448_a899_r13145_p5511  
mc20_13TeV:mc20_13TeV.801604.Py8EG_A14NNPDF23LO_XHS_X1500_S100_4b.deriv.DAOD_PHYSLITE.e8448_a899_r13167_p5511  
mc20_13TeV:mc20_13TeV.801605.Py8EG_A14NNPDF23LO_XHS_X1500_S170_4b.deriv.DAOD_PHYSLITE.e8448_a899_r13144_p5511  
mc20_13TeV:mc20_13TeV.801605.Py8EG_A14NNPDF23LO_XHS_X1500_S170_4b.deriv.DAOD_PHYSLITE.e8448_a899_r13145_p5511  
mc20_13TeV:mc20_13TeV.801605.Py8EG_A14NNPDF23LO_XHS_X1500_S170_4b.deriv.DAOD_PHYSLITE.e8448_a899_r13167_p5511  
mc20_13TeV:mc20_13TeV.801606.Py8EG_A14NNPDF23LO_XHS_X1500_S200_4b.deriv.DAOD_PHYSLITE.e8448_a899_r13144_p5511  
mc20_13TeV:mc20_13TeV.801606.Py8EG_A14NNPDF23LO_XHS_X1500_S200_4b.deriv.DAOD_PHYSLITE.e8448_a899_r13145_p5511  
mc20_13TeV:mc20_13TeV.801606.Py8EG_A14NNPDF23LO_XHS_X1500_S200_4b.deriv.DAOD_PHYSLITE.e8448_a899_r13167_p5511  
mc20_13TeV:mc20_13TeV.801607.Py8EG_A14NNPDF23LO_XHS_X1500_S250_4b.deriv.DAOD_PHYSLITE.e8448_a899_r13144_p5511  
mc20_13TeV:mc20_13TeV.801607.Py8EG_A14NNPDF23LO_XHS_X1500_S250_4b.deriv.DAOD_PHYSLITE.e8448_a899_r13145_p5511  
mc20_13TeV:mc20_13TeV.801607.Py8EG_A14NNPDF23LO_XHS_X1500_S250_4b.deriv.DAOD_PHYSLITE.e8448_a899_r13167_p5511  
mc20_13TeV:mc20_13TeV.801608.Py8EG_A14NNPDF23LO_XHS_X1500_S300_4b.deriv.DAOD_PHYSLITE.e8448_a899_r13144_p5511  
mc20_13TeV:mc20_13TeV.801608.Py8EG_A14NNPDF23LO_XHS_X1500_S300_4b.deriv.DAOD_PHYSLITE.e8448_a899_r13145_p5511  
mc20_13TeV:mc20_13TeV.801608.Py8EG_A14NNPDF23LO_XHS_X1500_S300_4b.deriv.DAOD_PHYSLITE.e8448_a899_r13167_p5511  
mc20_13TeV:mc20_13TeV.801609.Py8EG_A14NNPDF23LO_XHS_X1500_S400_4b.deriv.DAOD_PHYSLITE.e8448_a899_r13144_p5511  
mc20_13TeV:mc20_13TeV.801609.Py8EG_A14NNPDF23LO_XHS_X1500_S400_4b.deriv.DAOD_PHYSLITE.e8448_a899_r13145_p5511  
mc20_13TeV:mc20_13TeV.801609.Py8EG_A14NNPDF23LO_XHS_X1500_S400_4b.deriv.DAOD_PHYSLITE.e8448_a899_r13167_p5511  
mc20_13TeV:mc20_13TeV.801610.Py8EG_A14NNPDF23LO_XHS_X1500_S500_4b.deriv.DAOD_PHYSLITE.e8448_a899_r13144_p5511  
mc20_13TeV:mc20_13TeV.801610.Py8EG_A14NNPDF23LO_XHS_X1500_S500_4b.deriv.DAOD_PHYSLITE.e8448_a899_r13145_p5511  
mc20_13TeV:mc20_13TeV.801610.Py8EG_A14NNPDF23LO_XHS_X1500_S500_4b.deriv.DAOD_PHYSLITE.e8448_a899_r13167_p5511  
mc20_13TeV:mc20_13TeV.801611.Py8EG_A14NNPDF23LO_XHS_X1500_S750_4b.deriv.DAOD_PHYSLITE.e8448_a899_r13144_p5511  
mc20_13TeV:mc20_13TeV.801611.Py8EG_A14NNPDF23LO_XHS_X1500_S750_4b.deriv.DAOD_PHYSLITE.e8448_a899_r13145_p5511  
mc20_13TeV:mc20_13TeV.801611.Py8EG_A14NNPDF23LO_XHS_X1500_S750_4b.deriv.DAOD_PHYSLITE.e8448_a899_r13167_p5511  
mc20_13TeV:mc20_13TeV.801612.Py8EG_A14NNPDF23LO_XHS_X1500_S1000_4b.deriv.DAOD_PHYSLITE.e8448_a899_r13144_p5511 
mc20_13TeV:mc20_13TeV.801612.Py8EG_A14NNPDF23LO_XHS_X1500_S1000_4b.deriv.DAOD_PHYSLITE.e8448_a899_r13145_p5511 
mc20_13TeV:mc20_13TeV.801612.Py8EG_A14NNPDF23LO_XHS_X1500_S1000_4b.deriv.DAOD_PHYSLITE.e8448_a899_r13167_p5511 
mc20_13TeV:mc20_13TeV.801613.Py8EG_A14NNPDF23LO_XHS_X2000_S70_4b.deriv.DAOD_PHYSLITE.e8448_a899_r13144_p5511   
mc20_13TeV:mc20_13TeV.801613.Py8EG_A14NNPDF23LO_XHS_X2000_S70_4b.deriv.DAOD_PHYSLITE.e8448_a899_r13145_p5511   
mc20_13TeV:mc20_13TeV.801613.Py8EG_A14NNPDF23LO_XHS_X2000_S70_4b.deriv.DAOD_PHYSLITE.e8448_a899_r13167_p5511   
mc20_13TeV:mc20_13TeV.801614.Py8EG_A14NNPDF23LO_XHS_X2000_S100_4b.deriv.DAOD_PHYSLITE.e8448_a899_r13144_p5511  
mc20_13TeV:mc20_13TeV.801614.Py8EG_A14NNPDF23LO_XHS_X2000_S100_4b.deriv.DAOD_PHYSLITE.e8448_a899_r13145_p5511  
mc20_13TeV:mc20_13TeV.801614.Py8EG_A14NNPDF23LO_XHS_X2000_S100_4b.deriv.DAOD_PHYSLITE.e8448_a899_r13167_p5511  
mc20_13TeV:mc20_13TeV.801615.Py8EG_A14NNPDF23LO_XHS_X2000_S170_4b.deriv.DAOD_PHYSLITE.e8448_a899_r13144_p5511  
mc20_13TeV:mc20_13TeV.801615.Py8EG_A14NNPDF23LO_XHS_X2000_S170_4b.deriv.DAOD_PHYSLITE.e8448_a899_r13145_p5511  
mc20_13TeV:mc20_13TeV.801615.Py8EG_A14NNPDF23LO_XHS_X2000_S170_4b.deriv.DAOD_PHYSLITE.e8448_a899_r13167_p5511  
mc20_13TeV:mc20_13TeV.801616.Py8EG_A14NNPDF23LO_XHS_X2000_S200_4b.deriv.DAOD_PHYSLITE.e8448_a899_r13144_p5511  
mc20_13TeV:mc20_13TeV.801616.Py8EG_A14NNPDF23LO_XHS_X2000_S200_4b.deriv.DAOD_PHYSLITE.e8448_a899_r13145_p5511  
mc20_13TeV:mc20_13TeV.801616.Py8EG_A14NNPDF23LO_XHS_X2000_S200_4b.deriv.DAOD_PHYSLITE.e8448_a899_r13167_p5511  
mc20_13TeV:mc20_13TeV.801617.Py8EG_A14NNPDF23LO_XHS_X2000_S250_4b.deriv.DAOD_PHYSLITE.e8448_a899_r13144_p5511  
mc20_13TeV:mc20_13TeV.801617.Py8EG_A14NNPDF23LO_XHS_X2000_S250_4b.deriv.DAOD_PHYSLITE.e8448_a899_r13145_p5511  
mc20_13TeV:mc20_13TeV.801617.Py8EG_A14NNPDF23LO_XHS_X2000_S250_4b.deriv.DAOD_PHYSLITE.e8448_a899_r13167_p5511  
mc20_13TeV:mc20_13TeV.801618.Py8EG_A14NNPDF23LO_XHS_X2000_S300_4b.deriv.DAOD_PHYSLITE.e8448_a899_r13144_p5511  
mc20_13TeV:mc20_13TeV.801618.Py8EG_A14NNPDF23LO_XHS_X2000_S300_4b.deriv.DAOD_PHYSLITE.e8448_a899_r13145_p5511  
mc20_13TeV:mc20_13TeV.801618.Py8EG_A14NNPDF23LO_XHS_X2000_S300_4b.deriv.DAOD_PHYSLITE.e8448_a899_r13167_p5511  
mc20_13TeV:mc20_13TeV.801619.Py8EG_A14NNPDF23LO_XHS_X2000_S400_4b.deriv.DAOD_PHYSLITE.e8448_a899_r13144_p5511  
mc20_13TeV:mc20_13TeV.801619.Py8EG_A14NNPDF23LO_XHS_X2000_S400_4b.deriv.DAOD_PHYSLITE.e8448_a899_r13145_p5511  
mc20_13TeV:mc20_13TeV.801619.Py8EG_A14NNPDF23LO_XHS_X2000_S400_4b.deriv.DAOD_PHYSLITE.e8448_a899_r13167_p5511  
mc20_13TeV:mc20_13TeV.801620.Py8EG_A14NNPDF23LO_XHS_X2000_S500_4b.deriv.DAOD_PHYSLITE.e8448_a899_r13144_p5511  
mc20_13TeV:mc20_13TeV.801620.Py8EG_A14NNPDF23LO_XHS_X2000_S500_4b.deriv.DAOD_PHYSLITE.e8448_a899_r13145_p5511  
mc20_13TeV:mc20_13TeV.801620.Py8EG_A14NNPDF23LO_XHS_X2000_S500_4b.deriv.DAOD_PHYSLITE.e8448_a899_r13167_p5511  
mc20_13TeV:mc20_13TeV.801621.Py8EG_A14NNPDF23LO_XHS_X2000_S750_4b.deriv.DAOD_PHYSLITE.e8448_a899_r13144_p5511  
mc20_13TeV:mc20_13TeV.801621.Py8EG_A14NNPDF23LO_XHS_X2000_S750_4b.deriv.DAOD_PHYSLITE.e8448_a899_r13145_p5511  
mc20_13TeV:mc20_13TeV.801621.Py8EG_A14NNPDF23LO_XHS_X2000_S750_4b.deriv.DAOD_PHYSLITE.e8448_a899_r13167_p5511  
mc20_13TeV:mc20_13TeV.801622.Py8EG_A14NNPDF23LO_XHS_X2000_S1000_4b.deriv.DAOD_PHYSLITE.e8448_a899_r13144_p5511 
mc20_13TeV:mc20_13TeV.801622.Py8EG_A14NNPDF23LO_XHS_X2000_S1000_4b.deriv.DAOD_PHYSLITE.e8448_a899_r13145_p5511 
mc20_13TeV:mc20_13TeV.801622.Py8EG_A14NNPDF23LO_XHS_X2000_S1000_4b.deriv.DAOD_PHYSLITE.e8448_a899_r13167_p5511 
mc20_13TeV:mc20_13TeV.801623.Py8EG_A14NNPDF23LO_XHS_X2000_S1500_4b.deriv.DAOD_PHYSLITE.e8448_a899_r13144_p5511 
mc20_13TeV:mc20_13TeV.801623.Py8EG_A14NNPDF23LO_XHS_X2000_S1500_4b.deriv.DAOD_PHYSLITE.e8448_a899_r13145_p5511 
mc20_13TeV:mc20_13TeV.801623.Py8EG_A14NNPDF23LO_XHS_X2000_S1500_4b.deriv.DAOD_PHYSLITE.e8448_a899_r13167_p5511 
mc20_13TeV:mc20_13TeV.801624.Py8EG_A14NNPDF23LO_XHS_X2500_S70_4b.deriv.DAOD_PHYSLITE.e8448_a899_r13144_p5511   
mc20_13TeV:mc20_13TeV.801624.Py8EG_A14NNPDF23LO_XHS_X2500_S70_4b.deriv.DAOD_PHYSLITE.e8448_a899_r13145_p5511   
mc20_13TeV:mc20_13TeV.801624.Py8EG_A14NNPDF23LO_XHS_X2500_S70_4b.deriv.DAOD_PHYSLITE.e8448_a899_r13167_p5511   
mc20_13TeV:mc20_13TeV.801625.Py8EG_A14NNPDF23LO_XHS_X2500_S100_4b.deriv.DAOD_PHYSLITE.e8448_a899_r13144_p5511  
mc20_13TeV:mc20_13TeV.801625.Py8EG_A14NNPDF23LO_XHS_X2500_S100_4b.deriv.DAOD_PHYSLITE.e8448_a899_r13145_p5511  
mc20_13TeV:mc20_13TeV.801625.Py8EG_A14NNPDF23LO_XHS_X2500_S100_4b.deriv.DAOD_PHYSLITE.e8448_a899_r13167_p5511  
mc20_13TeV:mc20_13TeV.801626.Py8EG_A14NNPDF23LO_XHS_X2500_S170_4b.deriv.DAOD_PHYSLITE.e8448_a899_r13144_p5511  
mc20_13TeV:mc20_13TeV.801626.Py8EG_A14NNPDF23LO_XHS_X2500_S170_4b.deriv.DAOD_PHYSLITE.e8448_a899_r13145_p5511  
mc20_13TeV:mc20_13TeV.801626.Py8EG_A14NNPDF23LO_XHS_X2500_S170_4b.deriv.DAOD_PHYSLITE.e8448_a899_r13167_p5511  
mc20_13TeV:mc20_13TeV.801627.Py8EG_A14NNPDF23LO_XHS_X2500_S200_4b.deriv.DAOD_PHYSLITE.e8448_a899_r13144_p5511  
mc20_13TeV:mc20_13TeV.801627.Py8EG_A14NNPDF23LO_XHS_X2500_S200_4b.deriv.DAOD_PHYSLITE.e8448_a899_r13145_p5511  
mc20_13TeV:mc20_13TeV.801627.Py8EG_A14NNPDF23LO_XHS_X2500_S200_4b.deriv.DAOD_PHYSLITE.e8448_a899_r13167_p5511  
mc20_13TeV:mc20_13TeV.801628.Py8EG_A14NNPDF23LO_XHS_X2500_S250_4b.deriv.DAOD_PHYSLITE.e8448_a899_r13144_p5511  
mc20_13TeV:mc20_13TeV.801628.Py8EG_A14NNPDF23LO_XHS_X2500_S250_4b.deriv.DAOD_PHYSLITE.e8448_a899_r13145_p5511  
mc20_13TeV:mc20_13TeV.801628.Py8EG_A14NNPDF23LO_XHS_X2500_S250_4b.deriv.DAOD_PHYSLITE.e8448_a899_r13167_p5511  
mc20_13TeV:mc20_13TeV.801629.Py8EG_A14NNPDF23LO_XHS_X2500_S300_4b.deriv.DAOD_PHYSLITE.e8448_a899_r13144_p5511  
mc20_13TeV:mc20_13TeV.801629.Py8EG_A14NNPDF23LO_XHS_X2500_S300_4b.deriv.DAOD_PHYSLITE.e8448_a899_r13145_p5511  
mc20_13TeV:mc20_13TeV.801629.Py8EG_A14NNPDF23LO_XHS_X2500_S300_4b.deriv.DAOD_PHYSLITE.e8448_a899_r13167_p5511  
mc20_13TeV:mc20_13TeV.801630.Py8EG_A14NNPDF23LO_XHS_X2500_S400_4b.deriv.DAOD_PHYSLITE.e8448_a899_r13144_p5511  
mc20_13TeV:mc20_13TeV.801630.Py8EG_A14NNPDF23LO_XHS_X2500_S400_4b.deriv.DAOD_PHYSLITE.e8448_a899_r13145_p5511  
mc20_13TeV:mc20_13TeV.801630.Py8EG_A14NNPDF23LO_XHS_X2500_S400_4b.deriv.DAOD_PHYSLITE.e8448_a899_r13167_p5511  
mc20_13TeV:mc20_13TeV.801631.Py8EG_A14NNPDF23LO_XHS_X2500_S500_4b.deriv.DAOD_PHYSLITE.e8448_a899_r13144_p5511  
mc20_13TeV:mc20_13TeV.801631.Py8EG_A14NNPDF23LO_XHS_X2500_S500_4b.deriv.DAOD_PHYSLITE.e8448_a899_r13145_p5511  
mc20_13TeV:mc20_13TeV.801631.Py8EG_A14NNPDF23LO_XHS_X2500_S500_4b.deriv.DAOD_PHYSLITE.e8448_a899_r13167_p5511  
mc20_13TeV:mc20_13TeV.801632.Py8EG_A14NNPDF23LO_XHS_X2500_S750_4b.deriv.DAOD_PHYSLITE.e8448_a899_r13144_p5511  
mc20_13TeV:mc20_13TeV.801632.Py8EG_A14NNPDF23LO_XHS_X2500_S750_4b.deriv.DAOD_PHYSLITE.e8448_a899_r13145_p5511  
mc20_13TeV:mc20_13TeV.801632.Py8EG_A14NNPDF23LO_XHS_X2500_S750_4b.deriv.DAOD_PHYSLITE.e8448_a899_r13167_p5511  
mc20_13TeV:mc20_13TeV.801633.Py8EG_A14NNPDF23LO_XHS_X2500_S1000_4b.deriv.DAOD_PHYSLITE.e8448_a899_r13144_p5511 
mc20_13TeV:mc20_13TeV.801633.Py8EG_A14NNPDF23LO_XHS_X2500_S1000_4b.deriv.DAOD_PHYSLITE.e8448_a899_r13145_p5511 
mc20_13TeV:mc20_13TeV.801633.Py8EG_A14NNPDF23LO_XHS_X2500_S1000_4b.deriv.DAOD_PHYSLITE.e8448_a899_r13167_p5511 
mc20_13TeV:mc20_13TeV.801634.Py8EG_A14NNPDF23LO_XHS_X2500_S1500_4b.deriv.DAOD_PHYSLITE.e8448_a899_r13144_p5511 
mc20_13TeV:mc20_13TeV.801634.Py8EG_A14NNPDF23LO_XHS_X2500_S1500_4b.deriv.DAOD_PHYSLITE.e8448_a899_r13145_p5511 
mc20_13TeV:mc20_13TeV.801634.Py8EG_A14NNPDF23LO_XHS_X2500_S1500_4b.deriv.DAOD_PHYSLITE.e8448_a899_r13167_p5511 
mc20_13TeV:mc20_13TeV.801635.Py8EG_A14NNPDF23LO_XHS_X2500_S2000_4b.deriv.DAOD_PHYSLITE.e8448_a899_r13144_p5511 
mc20_13TeV:mc20_13TeV.801635.Py8EG_A14NNPDF23LO_XHS_X2500_S2000_4b.deriv.DAOD_PHYSLITE.e8448_a899_r13145_p5511 
mc20_13TeV:mc20_13TeV.801635.Py8EG_A14NNPDF23LO_XHS_X2500_S2000_4b.deriv.DAOD_PHYSLITE.e8448_a899_r13167_p5511 
mc20_13TeV:mc20_13TeV.801636.Py8EG_A14NNPDF23LO_XHS_X3000_S70_4b.deriv.DAOD_PHYSLITE.e8448_a899_r13144_p5511   
mc20_13TeV:mc20_13TeV.801636.Py8EG_A14NNPDF23LO_XHS_X3000_S70_4b.deriv.DAOD_PHYSLITE.e8448_a899_r13145_p5511   
mc20_13TeV:mc20_13TeV.801636.Py8EG_A14NNPDF23LO_XHS_X3000_S70_4b.deriv.DAOD_PHYSLITE.e8448_a899_r13167_p5511   
mc20_13TeV:mc20_13TeV.801637.Py8EG_A14NNPDF23LO_XHS_X3000_S100_4b.deriv.DAOD_PHYSLITE.e8448_a899_r13144_p5511  
mc20_13TeV:mc20_13TeV.801637.Py8EG_A14NNPDF23LO_XHS_X3000_S100_4b.deriv.DAOD_PHYSLITE.e8448_a899_r13145_p5511  
mc20_13TeV:mc20_13TeV.801637.Py8EG_A14NNPDF23LO_XHS_X3000_S100_4b.deriv.DAOD_PHYSLITE.e8448_a899_r13167_p5511  
mc20_13TeV:mc20_13TeV.801638.Py8EG_A14NNPDF23LO_XHS_X3000_S170_4b.deriv.DAOD_PHYSLITE.e8448_a899_r13144_p5511  
mc20_13TeV:mc20_13TeV.801638.Py8EG_A14NNPDF23LO_XHS_X3000_S170_4b.deriv.DAOD_PHYSLITE.e8448_a899_r13145_p5511  
mc20_13TeV:mc20_13TeV.801638.Py8EG_A14NNPDF23LO_XHS_X3000_S170_4b.deriv.DAOD_PHYSLITE.e8448_a899_r13167_p5511  
mc20_13TeV:mc20_13TeV.801639.Py8EG_A14NNPDF23LO_XHS_X3000_S200_4b.deriv.DAOD_PHYSLITE.e8448_a899_r13144_p5511  
mc20_13TeV:mc20_13TeV.801639.Py8EG_A14NNPDF23LO_XHS_X3000_S200_4b.deriv.DAOD_PHYSLITE.e8448_a899_r13145_p5511  
mc20_13TeV:mc20_13TeV.801639.Py8EG_A14NNPDF23LO_XHS_X3000_S200_4b.deriv.DAOD_PHYSLITE.e8448_a899_r13167_p5511  
mc20_13TeV:mc20_13TeV.801640.Py8EG_A14NNPDF23LO_XHS_X3000_S250_4b.deriv.DAOD_PHYSLITE.e8448_a899_r13144_p5511  
mc20_13TeV:mc20_13TeV.801640.Py8EG_A14NNPDF23LO_XHS_X3000_S250_4b.deriv.DAOD_PHYSLITE.e8448_a899_r13145_p5511  
mc20_13TeV:mc20_13TeV.801640.Py8EG_A14NNPDF23LO_XHS_X3000_S250_4b.deriv.DAOD_PHYSLITE.e8448_a899_r13167_p5511  
mc20_13TeV:mc20_13TeV.801641.Py8EG_A14NNPDF23LO_XHS_X3000_S300_4b.deriv.DAOD_PHYSLITE.e8448_a899_r13144_p5511  
mc20_13TeV:mc20_13TeV.801641.Py8EG_A14NNPDF23LO_XHS_X3000_S300_4b.deriv.DAOD_PHYSLITE.e8448_a899_r13145_p5511  
mc20_13TeV:mc20_13TeV.801641.Py8EG_A14NNPDF23LO_XHS_X3000_S300_4b.deriv.DAOD_PHYSLITE.e8448_a899_r13167_p5511  
mc20_13TeV:mc20_13TeV.801642.Py8EG_A14NNPDF23LO_XHS_X3000_S400_4b.deriv.DAOD_PHYSLITE.e8448_a899_r13144_p5511  
mc20_13TeV:mc20_13TeV.801642.Py8EG_A14NNPDF23LO_XHS_X3000_S400_4b.deriv.DAOD_PHYSLITE.e8448_a899_r13145_p5511  
mc20_13TeV:mc20_13TeV.801642.Py8EG_A14NNPDF23LO_XHS_X3000_S400_4b.deriv.DAOD_PHYSLITE.e8448_a899_r13167_p5511  
mc20_13TeV:mc20_13TeV.801643.Py8EG_A14NNPDF23LO_XHS_X3000_S500_4b.deriv.DAOD_PHYSLITE.e8448_a899_r13144_p5511  
mc20_13TeV:mc20_13TeV.801643.Py8EG_A14NNPDF23LO_XHS_X3000_S500_4b.deriv.DAOD_PHYSLITE.e8448_a899_r13145_p5511  
mc20_13TeV:mc20_13TeV.801643.Py8EG_A14NNPDF23LO_XHS_X3000_S500_4b.deriv.DAOD_PHYSLITE.e8448_a899_r13167_p5511  
mc20_13TeV:mc20_13TeV.801644.Py8EG_A14NNPDF23LO_XHS_X3000_S750_4b.deriv.DAOD_PHYSLITE.e8448_a899_r13144_p5511  
mc20_13TeV:mc20_13TeV.801644.Py8EG_A14NNPDF23LO_XHS_X3000_S750_4b.deriv.DAOD_PHYSLITE.e8448_a899_r13145_p5511  
mc20_13TeV:mc20_13TeV.801644.Py8EG_A14NNPDF23LO_XHS_X3000_S750_4b.deriv.DAOD_PHYSLITE.e8448_a899_r13167_p5511  
mc20_13TeV:mc20_13TeV.801645.Py8EG_A14NNPDF23LO_XHS_X3000_S1000_4b.deriv.DAOD_PHYSLITE.e8448_a899_r13144_p5511 
mc20_13TeV:mc20_13TeV.801645.Py8EG_A14NNPDF23LO_XHS_X3000_S1000_4b.deriv.DAOD_PHYSLITE.e8448_a899_r13145_p5511 
mc20_13TeV:mc20_13TeV.801645.Py8EG_A14NNPDF23LO_XHS_X3000_S1000_4b.deriv.DAOD_PHYSLITE.e8448_a899_r13167_p5511 
mc20_13TeV:mc20_13TeV.801646.Py8EG_A14NNPDF23LO_XHS_X3000_S1500_4b.deriv.DAOD_PHYSLITE.e8448_a899_r13144_p5511 
mc20_13TeV:mc20_13TeV.801646.Py8EG_A14NNPDF23LO_XHS_X3000_S1500_4b.deriv.DAOD_PHYSLITE.e8448_a899_r13145_p5511 
mc20_13TeV:mc20_13TeV.801646.Py8EG_A14NNPDF23LO_XHS_X3000_S1500_4b.deriv.DAOD_PHYSLITE.e8448_a899_r13167_p5511 
mc20_13TeV:mc20_13TeV.801647.Py8EG_A14NNPDF23LO_XHS_X3000_S2000_4b.deriv.DAOD_PHYSLITE.e8448_a899_r13144_p5511 
mc20_13TeV:mc20_13TeV.801647.Py8EG_A14NNPDF23LO_XHS_X3000_S2000_4b.deriv.DAOD_PHYSLITE.e8448_a899_r13145_p5511 
mc20_13TeV:mc20_13TeV.801647.Py8EG_A14NNPDF23LO_XHS_X3000_S2000_4b.deriv.DAOD_PHYSLITE.e8448_a899_r13167_p5511 
mc20_13TeV:mc20_13TeV.801648.Py8EG_A14NNPDF23LO_XHS_X3000_S2500_4b.deriv.DAOD_PHYSLITE.e8448_a899_r13144_p5511 
mc20_13TeV:mc20_13TeV.801648.Py8EG_A14NNPDF23LO_XHS_X3000_S2500_4b.deriv.DAOD_PHYSLITE.e8448_a899_r13145_p5511 
mc20_13TeV:mc20_13TeV.801648.Py8EG_A14NNPDF23LO_XHS_X3000_S2500_4b.deriv.DAOD_PHYSLITE.e8448_a899_r13167_p5511 
mc20_13TeV:mc20_13TeV.801888.Py8EG_A14NNPDF23LO_XHS_X4000_S100_4b.deriv.DAOD_PHYSLITE.e8448_a899_r13144_p5511  
mc20_13TeV:mc20_13TeV.801888.Py8EG_A14NNPDF23LO_XHS_X4000_S100_4b.deriv.DAOD_PHYSLITE.e8448_a899_r13145_p5511  
mc20_13TeV:mc20_13TeV.801888.Py8EG_A14NNPDF23LO_XHS_X4000_S100_4b.deriv.DAOD_PHYSLITE.e8448_a899_r13167_p5511  
mc20_13TeV:mc20_13TeV.801889.Py8EG_A14NNPDF23LO_XHS_X4000_S200_4b.deriv.DAOD_PHYSLITE.e8448_a899_r13144_p5511  
mc20_13TeV:mc20_13TeV.801889.Py8EG_A14NNPDF23LO_XHS_X4000_S200_4b.deriv.DAOD_PHYSLITE.e8448_a899_r13145_p5511  
mc20_13TeV:mc20_13TeV.801889.Py8EG_A14NNPDF23LO_XHS_X4000_S200_4b.deriv.DAOD_PHYSLITE.e8448_a899_r13167_p5511  
mc20_13TeV:mc20_13TeV.801890.Py8EG_A14NNPDF23LO_XHS_X4000_S300_4b.deriv.DAOD_PHYSLITE.e8448_a899_r13144_p5511  
mc20_13TeV:mc20_13TeV.801890.Py8EG_A14NNPDF23LO_XHS_X4000_S300_4b.deriv.DAOD_PHYSLITE.e8448_a899_r13145_p5511  
mc20_13TeV:mc20_13TeV.801890.Py8EG_A14NNPDF23LO_XHS_X4000_S300_4b.deriv.DAOD_PHYSLITE.e8448_a899_r13167_p5511  
mc20_13TeV:mc20_13TeV.801891.Py8EG_A14NNPDF23LO_XHS_X4000_S500_4b.deriv.DAOD_PHYSLITE.e8448_a899_r13144_p5511  
mc20_13TeV:mc20_13TeV.801891.Py8EG_A14NNPDF23LO_XHS_X4000_S500_4b.deriv.DAOD_PHYSLITE.e8448_a899_r13145_p5511  
mc20_13TeV:mc20_13TeV.801891.Py8EG_A14NNPDF23LO_XHS_X4000_S500_4b.deriv.DAOD_PHYSLITE.e8448_a899_r13167_p5511  
mc20_13TeV:mc20_13TeV.801892.Py8EG_A14NNPDF23LO_XHS_X4000_S1000_4b.deriv.DAOD_PHYSLITE.e8448_a899_r13144_p5511 
mc20_13TeV:mc20_13TeV.801892.Py8EG_A14NNPDF23LO_XHS_X4000_S1000_4b.deriv.DAOD_PHYSLITE.e8448_a899_r13145_p5511 
mc20_13TeV:mc20_13TeV.801892.Py8EG_A14NNPDF23LO_XHS_X4000_S1000_4b.deriv.DAOD_PHYSLITE.e8448_a899_r13167_p5511 
mc20_13TeV:mc20_13TeV.801893.Py8EG_A14NNPDF23LO_XHS_X4000_S2000_4b.deriv.DAOD_PHYSLITE.e8448_a899_r13144_p5511 
mc20_13TeV:mc20_13TeV.801893.Py8EG_A14NNPDF23LO_XHS_X4000_S2000_4b.deriv.DAOD_PHYSLITE.e8448_a899_r13145_p5511 
mc20_13TeV:mc20_13TeV.801893.Py8EG_A14NNPDF23LO_XHS_X4000_S2000_4b.deriv.DAOD_PHYSLITE.e8448_a899_r13167_p5511 
mc20_13TeV:mc20_13TeV.801894.Py8EG_A14NNPDF23LO_XHS_X4000_S3000_4b.deriv.DAOD_PHYSLITE.e8448_a899_r13144_p5511 
mc20_13TeV:mc20_13TeV.801894.Py8EG_A14NNPDF23LO_XHS_X4000_S3000_4b.deriv.DAOD_PHYSLITE.e8448_a899_r13145_p5511 
mc20_13TeV:mc20_13TeV.801894.Py8EG_A14NNPDF23LO_XHS_X4000_S3000_4b.deriv.DAOD_PHYSLITE.e8448_a899_r13167_p5511 
mc20_13TeV:mc20_13TeV.801895.Py8EG_A14NNPDF23LO_XHS_X5000_S100_4b.deriv.DAOD_PHYSLITE.e8448_a899_r13144_p5511  
mc20_13TeV:mc20_13TeV.801895.Py8EG_A14NNPDF23LO_XHS_X5000_S100_4b.deriv.DAOD_PHYSLITE.e8448_a899_r13145_p5511  
mc20_13TeV:mc20_13TeV.801895.Py8EG_A14NNPDF23LO_XHS_X5000_S100_4b.deriv.DAOD_PHYSLITE.e8448_a899_r13167_p5511  
mc20_13TeV:mc20_13TeV.801896.Py8EG_A14NNPDF23LO_XHS_X5000_S200_4b.deriv.DAOD_PHYSLITE.e8448_a899_r13144_p5511  
mc20_13TeV:mc20_13TeV.801896.Py8EG_A14NNPDF23LO_XHS_X5000_S200_4b.deriv.DAOD_PHYSLITE.e8448_a899_r13145_p5511  
mc20_13TeV:mc20_13TeV.801896.Py8EG_A14NNPDF23LO_XHS_X5000_S200_4b.deriv.DAOD_PHYSLITE.e8448_a899_r13167_p5511  
mc20_13TeV:mc20_13TeV.801897.Py8EG_A14NNPDF23LO_XHS_X5000_S300_4b.deriv.DAOD_PHYSLITE.e8448_a899_r13144_p5511  
mc20_13TeV:mc20_13TeV.801897.Py8EG_A14NNPDF23LO_XHS_X5000_S300_4b.deriv.DAOD_PHYSLITE.e8448_a899_r13145_p5511  
mc20_13TeV:mc20_13TeV.801897.Py8EG_A14NNPDF23LO_XHS_X5000_S300_4b.deriv.DAOD_PHYSLITE.e8448_a899_r13167_p5511  
mc20_13TeV:mc20_13TeV.801898.Py8EG_A14NNPDF23LO_XHS_X5000_S500_4b.deriv.DAOD_PHYSLITE.e8448_a899_r13144_p5511  
mc20_13TeV:mc20_13TeV.801898.Py8EG_A14NNPDF23LO_XHS_X5000_S500_4b.deriv.DAOD_PHYSLITE.e8448_a899_r13145_p5511  
mc20_13TeV:mc20_13TeV.801898.Py8EG_A14NNPDF23LO_XHS_X5000_S500_4b.deriv.DAOD_PHYSLITE.e8448_a899_r13167_p5511  
mc20_13TeV:mc20_13TeV.801899.Py8EG_A14NNPDF23LO_XHS_X5000_S1000_4b.deriv.DAOD_PHYSLITE.e8448_a899_r13144_p5511 
mc20_13TeV:mc20_13TeV.801899.Py8EG_A14NNPDF23LO_XHS_X5000_S1000_4b.deriv.DAOD_PHYSLITE.e8448_a899_r13145_p5511 
mc20_13TeV:mc20_13TeV.801899.Py8EG_A14NNPDF23LO_XHS_X5000_S1000_4b.deriv.DAOD_PHYSLITE.e8448_a899_r13167_p5511 
mc20_13TeV:mc20_13TeV.801900.Py8EG_A14NNPDF23LO_XHS_X5000_S2000_4b.deriv.DAOD_PHYSLITE.e8448_a899_r13144_p5511 
mc20_13TeV:mc20_13TeV.801900.Py8EG_A14NNPDF23LO_XHS_X5000_S2000_4b.deriv.DAOD_PHYSLITE.e8448_a899_r13145_p5511 
mc20_13TeV:mc20_13TeV.801900.Py8EG_A14NNPDF23LO_XHS_X5000_S2000_4b.deriv.DAOD_PHYSLITE.e8448_a899_r13167_p5511 
mc20_13TeV:mc20_13TeV.801901.Py8EG_A14NNPDF23LO_XHS_X5000_S3000_4b.deriv.DAOD_PHYSLITE.e8448_a899_r13144_p5511 
mc20_13TeV:mc20_13TeV.801901.Py8EG_A14NNPDF23LO_XHS_X5000_S3000_4b.deriv.DAOD_PHYSLITE.e8448_a899_r13145_p5511 
mc20_13TeV:mc20_13TeV.801901.Py8EG_A14NNPDF23LO_XHS_X5000_S3000_4b.deriv.DAOD_PHYSLITE.e8448_a899_r13167_p5511 
mc20_13TeV:mc20_13TeV.801902.Py8EG_A14NNPDF23LO_XHS_X5000_S4000_4b.deriv.DAOD_PHYSLITE.e8448_a899_r13144_p5511 
mc20_13TeV:mc20_13TeV.801902.Py8EG_A14NNPDF23LO_XHS_X5000_S4000_4b.deriv.DAOD_PHYSLITE.e8448_a899_r13145_p5511 
mc20_13TeV:mc20_13TeV.801902.Py8EG_A14NNPDF23LO_XHS_X5000_S4000_4b.deriv.DAOD_PHYSLITE.e8448_a899_r13167_p5511 
mc20_13TeV:mc20_13TeV.801903.Py8EG_A14NNPDF23LO_XHS_X6000_S100_4b.deriv.DAOD_PHYSLITE.e8448_a899_r13144_p5511  
mc20_13TeV:mc20_13TeV.801903.Py8EG_A14NNPDF23LO_XHS_X6000_S100_4b.deriv.DAOD_PHYSLITE.e8448_a899_r13145_p5511  
mc20_13TeV:mc20_13TeV.801903.Py8EG_A14NNPDF23LO_XHS_X6000_S100_4b.deriv.DAOD_PHYSLITE.e8448_a899_r13167_p5511  
mc20_13TeV:mc20_13TeV.801904.Py8EG_A14NNPDF23LO_XHS_X6000_S200_4b.deriv.DAOD_PHYSLITE.e8448_a899_r13144_p5511  
mc20_13TeV:mc20_13TeV.801904.Py8EG_A14NNPDF23LO_XHS_X6000_S200_4b.deriv.DAOD_PHYSLITE.e8448_a899_r13145_p5511  
mc20_13TeV:mc20_13TeV.801904.Py8EG_A14NNPDF23LO_XHS_X6000_S200_4b.deriv.DAOD_PHYSLITE.e8448_a899_r13167_p5511  
mc20_13TeV:mc20_13TeV.801905.Py8EG_A14NNPDF23LO_XHS_X6000_S300_4b.deriv.DAOD_PHYSLITE.e8448_a899_r13144_p5511  
mc20_13TeV:mc20_13TeV.801905.Py8EG_A14NNPDF23LO_XHS_X6000_S300_4b.deriv.DAOD_PHYSLITE.e8448_a899_r13145_p5511  
mc20_13TeV:mc20_13TeV.801905.Py8EG_A14NNPDF23LO_XHS_X6000_S300_4b.deriv.DAOD_PHYSLITE.e8448_a899_r13167_p5511  
mc20_13TeV:mc20_13TeV.801906.Py8EG_A14NNPDF23LO_XHS_X6000_S500_4b.deriv.DAOD_PHYSLITE.e8448_a899_r13144_p5511  
mc20_13TeV:mc20_13TeV.801906.Py8EG_A14NNPDF23LO_XHS_X6000_S500_4b.deriv.DAOD_PHYSLITE.e8448_a899_r13145_p5511  
mc20_13TeV:mc20_13TeV.801906.Py8EG_A14NNPDF23LO_XHS_X6000_S500_4b.deriv.DAOD_PHYSLITE.e8448_a899_r13167_p5511  
mc20_13TeV:mc20_13TeV.801907.Py8EG_A14NNPDF23LO_XHS_X6000_S1000_4b.deriv.DAOD_PHYSLITE.e8448_a899_r13144_p5511 
mc20_13TeV:mc20_13TeV.801907.Py8EG_A14NNPDF23LO_XHS_X6000_S1000_4b.deriv.DAOD_PHYSLITE.e8448_a899_r13145_p5511 
mc20_13TeV:mc20_13TeV.801907.Py8EG_A14NNPDF23LO_XHS_X6000_S1000_4b.deriv.DAOD_PHYSLITE.e8448_a899_r13167_p5511 
mc20_13TeV:mc20_13TeV.801908.Py8EG_A14NNPDF23LO_XHS_X6000_S2000_4b.deriv.DAOD_PHYSLITE.e8448_a899_r13144_p5511 
mc20_13TeV:mc20_13TeV.801908.Py8EG_A14NNPDF23LO_XHS_X6000_S2000_4b.deriv.DAOD_PHYSLITE.e8448_a899_r13145_p5511 
mc20_13TeV:mc20_13TeV.801908.Py8EG_A14NNPDF23LO_XHS_X6000_S2000_4b.deriv.DAOD_PHYSLITE.e8448_a899_r13167_p5511 
mc20_13TeV:mc20_13TeV.801909.Py8EG_A14NNPDF23LO_XHS_X6000_S3000_4b.deriv.DAOD_PHYSLITE.e8448_a899_r13144_p5511 
mc20_13TeV:mc20_13TeV.801909.Py8EG_A14NNPDF23LO_XHS_X6000_S3000_4b.deriv.DAOD_PHYSLITE.e8448_a899_r13145_p5511 
mc20_13TeV:mc20_13TeV.801909.Py8EG_A14NNPDF23LO_XHS_X6000_S3000_4b.deriv.DAOD_PHYSLITE.e8448_a899_r13167_p5511 
mc20_13TeV:mc20_13TeV.801910.Py8EG_A14NNPDF23LO_XHS_X6000_S4000_4b.deriv.DAOD_PHYSLITE.e8448_a899_r13144_p5511 
mc20_13TeV:mc20_13TeV.801910.Py8EG_A14NNPDF23LO_XHS_X6000_S4000_4b.deriv.DAOD_PHYSLITE.e8448_a899_r13145_p5511 
mc20_13TeV:mc20_13TeV.801910.Py8EG_A14NNPDF23LO_XHS_X6000_S4000_4b.deriv.DAOD_PHYSLITE.e8448_a899_r13167_p5511 
mc20_13TeV:mc20_13TeV.801911.Py8EG_A14NNPDF23LO_XHS_X6000_S5000_4b.deriv.DAOD_PHYSLITE.e8448_a899_r13144_p5511 
mc20_13TeV:mc20_13TeV.801911.Py8EG_A14NNPDF23LO_XHS_X6000_S5000_4b.deriv.DAOD_PHYSLITE.e8448_a899_r13145_p5511 
mc20_13TeV:mc20_13TeV.801911.Py8EG_A14NNPDF23LO_XHS_X6000_S5000_4b.deriv.DAOD_PHYSLITE.e8448_a899_r13167_p5511 
