mc20_13TeV.410471.PhPy8EG_A14_ttbar_hdamp258p75_allhad.deriv.DAOD_PHYS.e6337_s3681_r13144_p5631
mc20_13TeV.410471.PhPy8EG_A14_ttbar_hdamp258p75_allhad.deriv.DAOD_PHYS.e6337_s3681_r13145_p5631
mc20_13TeV.410471.PhPy8EG_A14_ttbar_hdamp258p75_allhad.deriv.DAOD_PHYS.e6337_s3681_r13167_p5631
